species,dd long,dd lat
B. virgilioides,"-34.8205556","-7.6061111"
B. virgilioides,"-34.8339004516602","-6.98111009597778"
B. virgilioides,"-34.8553009033203","-8.00889015197754"
B. virgilioides,"-34.863056","-7.115"
B. virgilioides,"-34.8731002807617","-7.94083023071289"
B. virgilioides,"-34.8810997009277","-8.05389022827148"
B. virgilioides,"-34.905833","-7.833888"
B. virgilioides,"-34.942482","-7.222502"
B. virgilioides,"-34.943278","-7.95775"
B. virgilioides,"-34.944392","-7.687283"
B. virgilioides,"-34.965","-8.071111"
B. virgilioides,"-34.96975","-7.693972"
B. virgilioides,"-34.978056","-7.114167"
B. virgilioides,"-34.978633","-6.493619"
B. virgilioides,"-34.998056","-7.843056"
B. virgilioides,"-35.002498626709","-7.56056022644043"
B. virgilioides,"-35.0078010559082","-6.36944007873535"
B. virgilioides,"-35.014444","-6.77"
B. virgilioides,"-35.0182991027832","-8.00222015380859"
B. virgilioides,"-35.046389","-8.2875"
B. virgilioides,"-35.0511016845703","-6.60138988494873"
B. virgilioides,"-35.062278","-7.904639"
B. virgilioides,"-35.077506","-6.974985"
B. virgilioides,"-35.0918998718262","-6.18666982650757"
B. virgilioides,"-35.0922012329102","-8.11861038208008"
B. virgilioides,"-35.099976","-7.199995"
B. virgilioides,"-35.1046981811523","-8.75971984863281"
B. virgilioides,"-35.1161003112793","-8.59082984924316"
B. virgilioides,"-35.12222","-6.69833"
B. virgilioides,"-35.1261","-6.83861"
B. virgilioides,"-35.129167","-6.604444"
B. virgilioides,"-35.160278","-6.194444"
B. virgilioides,"-35.176897","-8.727948"
B. virgilioides,"-35.1796989440918","-7.89666986465454"
B. virgilioides,"-35.181833","-6.719722"
B. virgilioides,"-35.18243","-8.63635"
B. virgilioides,"-35.1875","-5.929167"
B. virgilioides,"-35.201392","-5.843458"
B. virgilioides,"-35.216278","-7.791061"
B. virgilioides,"-35.2327995300293","-7.09638977050781"
B. virgilioides,"-35.2546997070312","-7.850830078125"
B. virgilioides,"-35.259167","-9.087778"
B. virgilioides,"-35.2917","-6.60333"
B. virgilioides,"-35.308333","-5.763889"
B. virgilioides,"-35.392778","-7.805139"
B. virgilioides,"-35.3983001708984","-9.04500007629395"
B. virgilioides,"-35.4439","-6.68667"
B. virgilioides,"-35.470444","-8.188611"
B. virgilioides,"-35.4933013916016","-9.23832988739014"
B. virgilioides,"-35.5","-7.583333"
B. virgilioides,"-35.531767","-9.23"
B. virgilioides,"-35.535","-8.387222"
B. virgilioides,"-35.544722","-6.95"
B. virgilioides,"-35.5647010803223","-8.20110988616943"
B. virgilioides,"-35.567222","-9.1"
B. virgilioides,"-35.5724","-9.3551"
B. virgilioides,"-35.572983","-9.463558"
B. virgilioides,"-35.6333","-6.75"
B. virgilioides,"-35.7285995483398","-8.47027969360352"
B. virgilioides,"-35.7352981567383","-9.6658296585083"
B. virgilioides,"-35.738297","-9.116311"
B. virgilioides,"-35.741755","-6.971994"
B. virgilioides,"-35.760583","-8.834986"
B. virgilioides,"-35.7933006286621","-8.72667026519775"
B. virgilioides,"-35.833333","-8.8"
B. virgilioides,"-35.8417015075684","-9.38333034515381"
B. virgilioides,"-35.843889","-8.381944"
B. virgilioides,"-35.8950004577637","-9.710280418396"
B. virgilioides,"-35.916667","-9.785278"
B. virgilioides,"-35.9393997192383","-8.97249984741211"
B. virgilioides,"-35.9566993713379","-9.5972204208374"
B. virgilioides,"-35.9761009216309","-8.28332996368408"
B. virgilioides,"-36.0318984985352","-9.16277980804443"
B. virgilioides,"-36.0442008972168","-7.90305995941162"
B. virgilioides,"-36.0583000183105","-9.00971984863281"
B. virgilioides,"-36.0936012268066","-9.78110980987549"
B. virgilioides,"-36.154722","-7.609167"
B. virgilioides,"-36.16","-9.118889"
B. virgilioides,"-36.1755981445312","-10.125599861145"
B. virgilioides,"-36.2202987670898","-9.64138984680176"
B. virgilioides,"-36.2216","-8.0845"
B. virgilioides,"-36.2407989501953","-9.3713903427124"
B. virgilioides,"-36.276111","-10.048611"
B. virgilioides,"-36.292222","-9.798611"
B. virgilioides,"-36.2961006164551","-9.25527954101562"
B. virgilioides,"-36.3053016662598","-9.57721996307373"
B. virgilioides,"-36.3711013793945","-8.14583015441895"
B. virgilioides,"-36.378889","-9.9425"
B. virgilioides,"-36.412167","-8.208389"
B. virgilioides,"-36.4241981506348","-8.3355598449707"
B. virgilioides,"-36.4306","-9.2544"
B. virgilioides,"-36.4328002929688","-9.53194046020508"
B. virgilioides,"-36.4710998535156","-9.31888961791992"
B. virgilioides,"-36.476217","-9.922986"
B. virgilioides,"-36.4921989440918","-9.57110977172852"
B. virgilioides,"-36.4928016662598","-8.89027976989746"
B. virgilioides,"-36.55419921875","-9.93360996246338"
B. virgilioides,"-36.5624","-10.3536"
B. virgilioides,"-36.575833","-9.518611"
B. virgilioides,"-36.601389","-8.4375"
B. virgilioides,"-36.629167","-6.941944"
B. virgilioides,"-36.6963996887207","-8.35778045654297"
B. virgilioides,"-36.750167","-10.614028"
B. virgilioides,"-36.800833","-10.346944"
B. virgilioides,"-36.940299987793","-10.5932998657227"
B. virgilioides,"-36.96475","-8.44275"
B. virgilioides,"-37.0332","-10.3159"
B. virgilioides,"-37.0527992248535","-10.5032997131348"
B. virgilioides,"-37.054167","-10.789167"
B. virgilioides,"-37.084722","-10.964444"
B. virgilioides,"-37.1125","-10.604167"
B. virgilioides,"-37.116222","-8.5555"
B. virgilioides,"-37.125833","-10.855"
B. virgilioides,"-37.1557998657227","-8.62306022644043"
B. virgilioides,"-37.169722","-10.806389"
B. virgilioides,"-37.1815","-10.393"
B. virgilioides,"-37.193056","-10.491944"
B. virgilioides,"-37.2064018249512","-11.0146999359131"
B. virgilioides,"-37.245833","-8.575833"
B. virgilioides,"-37.253","-10.4107"
B. virgilioides,"-37.2617","-11.1607"
B. virgilioides,"-37.266111","-9.041944"
B. virgilioides,"-37.2829","-11.0155"
B. virgilioides,"-37.304444","-10.658056"
B. virgilioides,"-37.3106002807617","-10.9981002807617"
B. virgilioides,"-37.3396987915039","-8.75333023071289"
B. virgilioides,"-37.344713","-11.304369"
B. virgilioides,"-37.381111","-7.252222"
B. virgilioides,"-37.39","-10.5502"
B. virgilioides,"-37.3928","-11.226"
B. virgilioides,"-37.42","-10.218333"
B. virgilioides,"-37.4253005981445","-10.6850004196167"
B. virgilioides,"-37.428639","-11.399639"
B. virgilioides,"-37.43138","-7.18611"
B. virgilioides,"-37.4481","-11.3508"
B. virgilioides,"-37.474722","-11.031944"
B. virgilioides,"-37.5125","-11.557778"
B. virgilioides,"-37.521944","-10.536111"
B. virgilioides,"-37.6","-11.8"
B. virgilioides,"-37.601111","-11.889167"
B. virgilioides,"-37.613611","-11.95"
B. virgilioides,"-37.620556","-11.146944"
B. virgilioides,"-37.65","-11.655833"
B. virgilioides,"-37.6500015258789","-10.917200088501"
B. virgilioides,"-37.6577987670898","-11.3832998275757"
B. virgilioides,"-37.695","-12.026111"
B. virgilioides,"-37.705556","-9.125"
B. virgilioides,"-37.766389","-11.483333"
B. virgilioides,"-37.7844009399414","-11.5642004013062"
B. virgilioides,"-37.789167","-9.66"
B. virgilioides,"-37.9","-11.466667"
B. virgilioides,"-37.9449996948242","-11.7960996627808"
B. virgilioides,"-37.95","-11.883333"
B. virgilioides,"-37.961944","-12.474444"
B. virgilioides,"-37.974444","-12.251389"
B. virgilioides,"-37.998056","-11.184167"
B. virgilioides,"-38.083333","-11.933333"
B. virgilioides,"-38.1492004394531","-9.10527992248535"
B. virgilioides,"-38.201944","-9.059167"
B. virgilioides,"-38.25","-9.201944"
B. virgilioides,"-38.283333","-12.516667"
B. virgilioides,"-38.2969017028809","-12.6125001907349"
B. virgilioides,"-38.316667","-12.683333"
B. virgilioides,"-38.3272018432617","-12.8943996429443"
B. virgilioides,"-38.333333","-12.25"
B. virgilioides,"-38.366667","-12.85"
B. virgilioides,"-38.383333","-12.533333"
B. virgilioides,"-38.398333","-10.25"
B. virgilioides,"-38.42","-12.951667"
B. virgilioides,"-38.433333","-12.133333"
B. virgilioides,"-38.433333","-9.966667"
B. virgilioides,"-38.483333","-12.5"
B. virgilioides,"-38.5","-12.966667"
B. virgilioides,"-38.505833","-12.160278"
B. virgilioides,"-38.533333","-10.833333"
B. virgilioides,"-38.533333","-13"
B. virgilioides,"-38.6","-12.95"
B. virgilioides,"-38.616667","-12.766667"
B. virgilioides,"-38.65","-10.866667"
B. virgilioides,"-38.674444","-10.656111"
B. virgilioides,"-38.6786003112793","-12.8882999420166"
B. virgilioides,"-38.75","-12.2333002090454"
B. virgilioides,"-38.7667007446289","-12.0500001907349"
B. virgilioides,"-38.7686004638672","-12.7375001907349"
B. virgilioides,"-38.783333","-10.95"
B. virgilioides,"-38.783333","-13.05"
B. virgilioides,"-38.833333","-12.25"
B. virgilioides,"-38.866667","-15.85"
B. virgilioides,"-38.895194","-4.206222"
B. virgilioides,"-38.9193992614746","-12.7777996063232"
B. virgilioides,"-38.936944","-12.283889"
B. virgilioides,"-38.9557991027832","-12.6183004379272"
B. virgilioides,"-38.973056","-12.196389"
B. virgilioides,"-38.9967002868652","-14.2775001525879"
B. virgilioides,"-39.0247001647949","-16.2780990600586"
B. virgilioides,"-39.03","-12.430194"
B. virgilioides,"-39.03","-12.596944"
B. virgilioides,"-39.033333","-14.85"
B. virgilioides,"-39.06","-13.231389"
B. virgilioides,"-39.0647010803223","-16.4496994018555"
B. virgilioides,"-39.066667","-13.366667"
B. virgilioides,"-39.0752983093262","-15.2932996749878"
B. virgilioides,"-39.077333","-12.662111"
B. virgilioides,"-39.080556","-13.668333"
B. virgilioides,"-39.083333","-15.15"
B. virgilioides,"-39.116667","-14.683333"
B. virgilioides,"-39.121944","-12.653056"
B. virgilioides,"-39.133333","-16.383333"
B. virgilioides,"-39.1431007385254","-7.24972009658813"
B. virgilioides,"-39.1699981689453","-12.7793998718262"
B. virgilioides,"-39.1955986022949","-17.5193996429443"
B. virgilioides,"-39.2803","-14.7856"
B. virgilioides,"-39.30419921875","-7.31111001968384"
B. virgilioides,"-39.317638","-7.547916"
B. virgilioides,"-39.320055","-7.591888"
B. virgilioides,"-39.3272018432617","-14.3166999816895"
B. virgilioides,"-39.331","-13.770028"
B. virgilioides,"-39.344722","-13.150278"
B. virgilioides,"-39.348611","-7.407778"
B. virgilioides,"-39.354436","-7.383867"
B. virgilioides,"-39.371111","-16.371111"
B. virgilioides,"-39.394444","-7.347417"
B. virgilioides,"-39.4094009399414","-7.23416996002197"
B. virgilioides,"-39.4282989501953","-12.7656002044678"
B. virgilioides,"-39.466278","-7.470611"
B. virgilioides,"-39.466667","-7.233333"
B. virgilioides,"-39.476944","-7.36"
B. virgilioides,"-39.482778","-12.859722"
B. virgilioides,"-39.4861","-13.8431"
B. virgilioides,"-39.516667","-12.933333"
B. virgilioides,"-39.5233001708984","-12.771900177002"
B. virgilioides,"-39.5325","-7.216389"
B. virgilioides,"-39.55","-12.633333"
B. virgilioides,"-39.5533","-16.575"
B. virgilioides,"-39.561111","-7.288889"
B. virgilioides,"-39.600278","-17.100278"
B. virgilioides,"-39.628889","-15.564167"
B. virgilioides,"-39.6511001586914","-15.4642000198364"
B. virgilioides,"-39.6627998352051","-13.2680997848511"
B. virgilioides,"-39.6805992126465","-7.09167003631592"
B. virgilioides,"-39.7242012023926","-7.51194000244141"
B. virgilioides,"-39.7419013977051","-17.5349998474121"
B. virgilioides,"-39.750833","-13.602222"
B. virgilioides,"-39.754444","-17.752778"
B. virgilioides,"-39.780278","-13.320278"
B. virgilioides,"-39.820278","-13.423056"
B. virgilioides,"-39.875","-6.87444019317627"
B. virgilioides,"-39.981111","-13.1025"
B. virgilioides,"-40.061823","-19.138495"
B. virgilioides,"-40.0722007751465","-19.3910999298096"
B. virgilioides,"-40.0835990905762","-13.8575000762939"
B. virgilioides,"-40.1502990722656","-13.5317001342773"
B. virgilioides,"-40.2132987976074","-18.3703002929688"
B. virgilioides,"-40.215556","-12.915278"
B. virgilioides,"-40.3213996887207","-10.5074996948242"
B. virgilioides,"-40.418056","-13.423889"
B. virgilioides,"-40.4308013916016","-13.4411001205444"
B. virgilioides,"-40.440806","-13.586503"
B. virgilioides,"-40.490556","-12.318611"
B. virgilioides,"-40.5182991027832","-11.1806001663208"
B. virgilioides,"-40.533333","-19.866667"
B. virgilioides,"-40.5375","-13.033056"
B. virgilioides,"-40.5375","-13.275"
B. virgilioides,"-40.546389","-11.939722"
B. virgilioides,"-40.549722","-11.405"
B. virgilioides,"-40.557222","-10.9325"
B. virgilioides,"-40.5821990966797","-4.14167022705078"
B. virgilioides,"-40.604167","-19.780556"
B. virgilioides,"-40.6305999755859","-19.539400100708"
B. virgilioides,"-40.6325","-19.8375"
B. virgilioides,"-40.6775016784668","-5.1783299446106"
B. virgilioides,"-40.6967010498047","-3.22555994987488"
B. virgilioides,"-40.7164001464844","-17.0771999359131"
B. virgilioides,"-40.791111","-14.850833"
B. virgilioides,"-40.8394012451172","-14.8661003112793"
B. virgilioides,"-40.8556","-19.8019"
B. virgilioides,"-40.873333","-2.882222"
B. virgilioides,"-40.880833","-16.033611"
B. virgilioides,"-40.903611","-11.562778"
B. virgilioides,"-40.9094009399414","-15.5313997268677"
B. virgilioides,"-40.9211006164551","-3.85443997383118"
B. virgilioides,"-40.99169921875","-3.7322199344635"
B. virgilioides,"-41.027222","-15.686667"
B. virgilioides,"-41.033333","-12.566667"
B. virgilioides,"-41.056944","-11.602222"
B. virgilioides,"-41.0638999938965","-19.4958000183105"
B. virgilioides,"-41.066667","-12.95"
B. virgilioides,"-41.083333","-11.416667"
B. virgilioides,"-41.089166","-16.338888"
B. virgilioides,"-41.1","-13.15"
B. virgilioides,"-41.102611","-15.730833"
B. virgilioides,"-41.116667","-11.483333"
B. virgilioides,"-41.15","-11.55"
B. virgilioides,"-41.166667","-13.55"
B. virgilioides,"-41.177222","-11.534444"
B. virgilioides,"-41.21","-12.31"
B. virgilioides,"-41.216667","-10.35"
B. virgilioides,"-41.22","-13.33"
B. virgilioides,"-41.221667","-11.409444"
B. virgilioides,"-41.237778","-12.931111"
B. virgilioides,"-41.25","-12.85"
B. virgilioides,"-41.266667","-11.516667"
B. virgilioides,"-41.274722","-12.945556"
B. virgilioides,"-41.28","-13.41"
B. virgilioides,"-41.283889","-12.241111"
B. virgilioides,"-41.2971992492676","-16.0053005218506"
B. virgilioides,"-41.3","-13.583333"
B. virgilioides,"-41.316667","-10.366667"
B. virgilioides,"-41.323299407959","-5.50361013412476"
B. virgilioides,"-41.3314018249512","-12.8072004318237"
B. virgilioides,"-41.333333","-12.483333"
B. virgilioides,"-41.333333","-13.833333"
B. virgilioides,"-41.362778","-12.481389"
B. virgilioides,"-41.3675","-5.876389"
B. virgilioides,"-41.369167","-12.635556"
B. virgilioides,"-41.3708000183105","-13.0052995681763"
B. virgilioides,"-41.371667","-3.559444"
B. virgilioides,"-41.383333","-12.566667"
B. virgilioides,"-41.416667","-13.383333"
B. virgilioides,"-41.423611","-13.160556"
B. virgilioides,"-41.429444","-10.308889"
B. virgilioides,"-41.45","-10.621667"
B. virgilioides,"-41.45","-12.056667"
B. virgilioides,"-41.453056","-12.430278"
B. virgilioides,"-41.459444","-10.339638"
B. virgilioides,"-41.4599990844727","-15.747200012207"
B. virgilioides,"-41.466667","-12.45"
B. virgilioides,"-41.466667","-12.933333"
B. virgilioides,"-41.466667","-13.3"
B. virgilioides,"-41.483333","-13.233333"
B. virgilioides,"-41.5","-5.339444"
B. virgilioides,"-41.5525016784668","-5.32221984863281"
B. virgilioides,"-41.5588989257812","-12.5289001464844"
B. virgilioides,"-41.65","-4.15"
B. virgilioides,"-41.6652984619141","-14.2035999298096"
B. virgilioides,"-41.683333","-5.216667"
B. virgilioides,"-41.691944","-13.268889"
B. virgilioides,"-41.697222","-3.999083"
B. virgilioides,"-41.7","-5.3"
B. virgilioides,"-41.7092018127441","-3.92806005477905"
B. virgilioides,"-41.715833","-4.109444"
B. virgilioides,"-41.7728004455566","-13.1519002914429"
B. virgilioides,"-41.7769012451172","-4.2733302116394"
B. virgilioides,"-41.78","-13.37"
B. virgilioides,"-41.786389","-4.173889"
B. virgilioides,"-41.8114013671875","-13.5789003372192"
B. virgilioides,"-41.816667","-13.233333"
B. virgilioides,"-41.817798614502","-4.77111005783081"
B. virgilioides,"-41.85","-12.9"
B. virgilioides,"-41.85","-13.3"
B. virgilioides,"-41.869444","-16.338889"
B. virgilioides,"-41.883333","-13.366667"
B. virgilioides,"-41.8960990905762","-3.41750001907349"
B. virgilioides,"-41.896944","-13.388889"
B. virgilioides,"-41.933333","-13.316667"
B. virgilioides,"-41.933333","-13.516667"
B. virgilioides,"-41.933333","-4.55"
B. virgilioides,"-41.933611","-13.094444"
B. virgilioides,"-41.939722","-15.119722"
B. virgilioides,"-41.9425010681152","-4.45666980743408"
B. virgilioides,"-42","-11"
B. virgilioides,"-42","-14"
B. virgilioides,"-42.032149","-22.874703"
B. virgilioides,"-42.0750007629395","-4.02500009536743"
B. virgilioides,"-42.1310997009277","-7.0252799987793"
B. virgilioides,"-42.1391983032227","-19.7896995544434"
B. virgilioides,"-42.1403007507324","-6.20194005966187"
B. virgilioides,"-42.2331008911133","-15.8078002929688"
B. virgilioides,"-42.333333","-13.85"
B. virgilioides,"-42.333333","-14.083333"
B. virgilioides,"-42.363888","-16.034166"
B. virgilioides,"-42.3703002929688","-3.45777988433838"
B. virgilioides,"-42.4","-13.75"
B. virgilioides,"-42.425277","-15.426944"
B. virgilioides,"-42.438889","-3.2"
B. virgilioides,"-42.4749984741211","-14.0693998336792"
B. virgilioides,"-42.481111","-16.211944"
B. virgilioides,"-42.496667","-6.477222"
B. virgilioides,"-42.5074996948242","-14.6822004318237"
B. virgilioides,"-42.53","-14.608889"
B. virgilioides,"-42.533333","-14.166667"
B. virgilioides,"-42.5388984680176","-21.7705993652344"
B. virgilioides,"-42.546667","-14.752778"
B. virgilioides,"-42.561111","-14.580833"
B. virgilioides,"-42.5903015136719","-17.218599319458"
B. virgilioides,"-42.592222","-15.962777"
B. virgilioides,"-42.594722","-19.221389"
B. virgilioides,"-42.598528","-5.734917"
B. virgilioides,"-42.6","-19.766667"
B. virgilioides,"-42.6077995300293","-5.56416988372803"
B. virgilioides,"-42.652222","-13.825556"
B. virgilioides,"-42.676399230957","-5.35832977294922"
B. virgilioides,"-42.6883010864258","-6.23778009414673"
B. virgilioides,"-42.69","-12.034444"
B. virgilioides,"-42.698600769043","-13.0193996429443"
B. virgilioides,"-42.721944","-16.1125"
B. virgilioides,"-42.733333","-13.116667"
B. virgilioides,"-42.735","-15.645833"
B. virgilioides,"-42.750301361084","-3.68443989753723"
B. virgilioides,"-42.7766990661621","-19.8428001403809"
B. virgilioides,"-42.816667","-22.666667"
B. virgilioides,"-42.8367004394531","-5.09417009353638"
B. virgilioides,"-42.840002","-3.24"
B. virgilioides,"-42.840005","-3.419998"
B. virgilioides,"-42.840032","-3.599977"
B. virgilioides,"-42.8897018432617","-16.5594005584717"
B. virgilioides,"-42.889722","-13.389444"
B. virgilioides,"-42.891944","-22.173333"
B. virgilioides,"-42.896917","-16.223694"
B. virgilioides,"-42.9909","-16.65775"
B. virgilioides,"-43.0092010498047","-18.2936000823975"
B. virgilioides,"-43.019722","-5.039722"
B. virgilioides,"-43.020003","-3.599981"
B. virgilioides,"-43.0839004516602","-18.6660995483398"
B. virgilioides,"-43.1417007446289","-11.0894002914429"
B. virgilioides,"-43.183333","-15.616667"
B. virgilioides,"-43.191111","-17.508611"
B. virgilioides,"-43.199984","-3.059982"
B. virgilioides,"-43.199999","-3.240002"
B. virgilioides,"-43.199999","-3.780003"
B. virgilioides,"-43.2","-5.58"
B. virgilioides,"-43.2249984741211","-17.9466991424561"
B. virgilioides,"-43.242778","-3.0475"
B. virgilioides,"-43.283056","-5.233333"
B. virgilioides,"-43.2936","-18.2452"
B. virgilioides,"-43.3300018310547","-9.27861022949219"
B. virgilioides,"-43.3331","-18.1"
B. virgilioides,"-43.333333","-17.65"
B. virgilioides,"-43.354444","-18.139167"
B. virgilioides,"-43.3560981750488","-4.85889005661011"
B. virgilioides,"-43.3602981567383","-3.74166989326477"
B. virgilioides,"-43.3793983459473","-18.604700088501"
B. virgilioides,"-43.379978","-3.420008"
B. virgilioides,"-43.395278","-3.206944"
B. virgilioides,"-43.401611","-19.397"
B. virgilioides,"-43.4075012207031","-20.0746994018555"
B. virgilioides,"-43.4152984619141","-19.959400177002"
B. virgilioides,"-43.4160995483398","-20.377799987793"
B. virgilioides,"-43.424987","-4.815007"
B. virgilioides,"-43.456944","-18.077222"
B. virgilioides,"-43.4883003234863","-16.4757995605469"
B. virgilioides,"-43.493694","-9.216861"
B. virgilioides,"-43.49773","-18.4156"
B. virgilioides,"-43.501944","-18.16"
B. virgilioides,"-43.5080986022949","-20.2875003814697"
B. virgilioides,"-43.524167","-6.833056"
B. virgilioides,"-43.537222","-9.245"
B. virgilioides,"-43.5825","-19.346944"
B. virgilioides,"-43.587039","-20.248489"
B. virgilioides,"-43.6","-19.266667"
B. virgilioides,"-43.601666","-9.3725"
B. virgilioides,"-43.601944","-18.161667"
B. virgilioides,"-43.616806","-19.349167"
B. virgilioides,"-43.623333","-18.219167"
B. virgilioides,"-43.6697006225586","-19.8799991607666"
B. virgilioides,"-43.6866989135742","-9.39832973480225"
B. virgilioides,"-43.698056","-19.112222"
B. virgilioides,"-43.705278","-18.180278"
B. virgilioides,"-43.739992","-7.2"
B. virgilioides,"-43.740003","-7.020003"
B. virgilioides,"-43.740011","-4.5"
B. virgilioides,"-43.7407989501953","-18.4543991088867"
B. virgilioides,"-43.7449989318848","-19.513599395752"
B. virgilioides,"-43.752778","-18.293889"
B. virgilioides,"-43.772965","-19.004701"
B. virgilioides,"-43.777353","-18.99053"
B. virgilioides,"-43.784444","-14.234722"
B. virgilioides,"-43.784444","-14.336389"
B. virgilioides,"-43.801399230957","-20.2532997131348"
B. virgilioides,"-43.8067016601562","-19.8864002227783"
B. virgilioides,"-43.842778","-20.130556"
B. virgilioides,"-43.8466987609863","-19.9855995178223"
B. virgilioides,"-43.8577995300293","-20.4997005462646"
B. virgilioides,"-43.8616981506348","-16.7350006103516"
B. virgilioides,"-43.866944","-14.229167"
B. virgilioides,"-43.8875007629395","-12.1199998855591"
B. virgilioides,"-43.8897018432617","-19.6271991729736"
B. virgilioides,"-43.894306","-19.538583"
B. virgilioides,"-43.905417","-19.953256"
B. virgilioides,"-43.925556","-17.975833"
B. virgilioides,"-43.966667","-19.633333"
B. virgilioides,"-43.987556","-19.473278"
B. virgilioides,"-44.03333","-12.11667"
B. virgilioides,"-44.043098449707","-19.0060997009277"
B. virgilioides,"-44.049167","-19.825"
B. virgilioides,"-44.184722","-17.726667"
B. virgilioides,"-44.198299407959","-19.9678001403809"
B. virgilioides,"-44.2","-12.783333"
B. virgilioides,"-44.2125","-14.231667"
B. virgilioides,"-44.2467002868652","-19.465799331665"
B. virgilioides,"-44.249444","-6.026389"
B. virgilioides,"-44.25","-3.5"
B. virgilioides,"-44.28","-10.619722"
B. virgilioides,"-44.280034","-7.379539"
B. virgilioides,"-44.3060989379883","-10.0363998413086"
B. virgilioides,"-44.35475","-16.223222"
B. virgilioides,"-44.3586006164551","-9.07444000244141"
B. virgilioides,"-44.358611","-3.3925"
B. virgilioides,"-44.3616981506348","-15.4881000518799"
B. virgilioides,"-44.363333","-6.371389"
B. virgilioides,"-44.378889","-19.829722"
B. virgilioides,"-44.4042015075684","-19.2744007110596"
B. virgilioides,"-44.4308013916016","-18.7563991546631"
B. virgilioides,"-44.432778","-12.559722"
B. virgilioides,"-44.4328002929688","-13.6194000244141"
B. virgilioides,"-44.459997","-8.459997"
B. virgilioides,"-44.460008","-7.919997"
B. virgilioides,"-44.460942","-8.100286"
B. virgilioides,"-44.5092010498047","-20.9130992889404"
B. virgilioides,"-44.5497","-9.8381"
B. virgilioides,"-44.628889","-14.935833"
B. virgilioides,"-44.6366996765137","-13.3432998657227"
B. virgilioides,"-44.639723","-5.760704"
B. virgilioides,"-44.64","-12.24"
B. virgilioides,"-44.64","-14.3778"
B. virgilioides,"-44.640006","-10.619992"
B. virgilioides,"-44.640009","-9.720001"
B. virgilioides,"-44.6577987670898","-21.2980995178223"
B. virgilioides,"-44.7225","-14.286944"
B. virgilioides,"-44.733333","-13.416667"
B. virgilioides,"-44.7543983459473","-15.3233003616333"
B. virgilioides,"-44.811389","-6.816667"
B. virgilioides,"-44.82","-6.48"
B. virgilioides,"-44.8272018432617","-20.6963996887207"
B. virgilioides,"-44.85","-12.6"
B. virgilioides,"-44.8711013793945","-21.3169002532959"
B. virgilioides,"-44.8988990783691","-18.7581005096436"
B. virgilioides,"-44.9033012390137","-21.511100769043"
B. virgilioides,"-44.9171981811523","-21.4011001586914"
B. virgilioides,"-44.959444","-8.880556"
B. virgilioides,"-44.9622001647949","-17.3511009216309"
B. virgilioides,"-44.966667","-12.35"
B. virgilioides,"-44.972778","-8.5575"
B. virgilioides,"-44.9900016784668","-12.1527996063232"
B. virgilioides,"-44.999142","-10.259745"
B. virgilioides,"-44.999444","-21.245278"
B. virgilioides,"-45","-14.22"
B. virgilioides,"-45","-7.4"
B. virgilioides,"-45.001333","-7.92"
B. virgilioides,"-45.020556","-21.753056"
B. virgilioides,"-45.07","-7.38"
B. virgilioides,"-45.095556","-8.691944"
B. virgilioides,"-45.127789","-12.060019"
B. virgilioides,"-45.1622009277344","-10.4433002471924"
B. virgilioides,"-45.18","-12.24"
B. virgilioides,"-45.18","-14.219722"
B. virgilioides,"-45.2","-12.466666"
B. virgilioides,"-45.2","-18.45"
B. virgilioides,"-45.21667","-10.13333"
B. virgilioides,"-45.2433013916016","-5.50555992126465"
B. virgilioides,"-45.25","-5.55"
B. virgilioides,"-45.265556","-21.749722"
B. virgilioides,"-45.28","-12.08"
B. virgilioides,"-45.335","-15.358056"
B. virgilioides,"-45.425417","-17.099411"
B. virgilioides,"-45.4303016662598","-21.551399230957"
B. virgilioides,"-45.472944","-21.107083"
B. virgilioides,"-45.5393981933594","-20.2819004058838"
B. virgilioides,"-45.557201385498","-19.2735996246338"
B. virgilioides,"-45.5657997131348","-21.0900001525879"
B. virgilioides,"-45.575556","-15.371389"
B. virgilioides,"-45.720645","-10.08024"
B. virgilioides,"-45.7428016662598","-8.47527980804443"
B. virgilioides,"-45.8302993774414","-21.1067008972168"
B. virgilioides,"-45.83135","-8.586883"
B. virgilioides,"-45.9","-14.4"
B. virgilioides,"-45.900119","-7.559989"
B. virgilioides,"-45.9296989440918","-9.11083030700684"
B. virgilioides,"-45.984083","-9.267167"
B. virgilioides,"-45.988278","-20.909306"
B. virgilioides,"-46","-20"
B. virgilioides,"-46.0093994140625","-17.0097007751465"
B. virgilioides,"-46.009444","-17.009722"
B. virgilioides,"-46.0317","-18.3781"
B. virgilioides,"-46.0355987548828","-7.53249979019165"
B. virgilioides,"-46.0499992370605","-20.6152992248535"
B. virgilioides,"-46.050528","-7.656389"
B. virgilioides,"-46.075","-9.225"
B. virgilioides,"-46.079996","-9.540008"
B. virgilioides,"-46.080901","-8.820272"
B. virgilioides,"-46.106333","-13.311861"
B. virgilioides,"-46.1189002990723","-20.9719009399414"
B. virgilioides,"-46.138599395752","-5.81943988800049"
B. virgilioides,"-46.157788","-5.873846"
B. virgilioides,"-46.1725006103516","-17.7425003051758"
B. virgilioides,"-46.259874","-8.820528"
B. virgilioides,"-46.26","-5.58"
B. virgilioides,"-46.260225","-9.360735"
B. virgilioides,"-46.3182983398438","-13.3983001708984"
B. virgilioides,"-46.330556","-20.640556"
B. virgilioides,"-46.331944","-17.651667"
B. virgilioides,"-46.3657989501953","-20.2453002929688"
B. virgilioides,"-46.3880996704102","-20.8635997772217"
B. virgilioides,"-46.418098449707","-18.4178009033203"
B. virgilioides,"-46.429639","-10.541333"
B. virgilioides,"-46.4302778","-15.6171"
B. virgilioides,"-46.45694","-10.45"
B. virgilioides,"-46.4922","-14.4808"
B. virgilioides,"-46.509444","-10.356444"
B. virgilioides,"-46.5181007385254","-18.5788993835449"
B. virgilioides,"-46.537778","-20.488333"
B. virgilioides,"-46.63","-23.5403"
B. virgilioides,"-46.683333","-17.216667"
B. virgilioides,"-46.7625","-8.6922222"
B. virgilioides,"-46.783055","-14.5225"
B. virgilioides,"-46.8074989318848","-18.1783008575439"
B. virgilioides,"-46.8539009094238","-20.343900680542"
B. virgilioides,"-46.869167","-17.203056"
B. virgilioides,"-46.874698638916","-17.2222003936768"
B. virgilioides,"-46.9061012268066","-16.3575000762939"
B. virgilioides,"-46.9077987670898","-17.9869003295898"
B. virgilioides,"-46.9108333","-19.6841666"
B. virgilioides,"-46.9421997070312","-22.372200012207"
B. virgilioides,"-46.950001","-22.4333"
B. virgilioides,"-46.991317","-13.952333"
B. virgilioides,"-46.9925003051758","-18.9438991546631"
B. virgilioides,"-47.0225","-17.149166"
B. virgilioides,"-47.060001373291","-22.8999996185303"
B. virgilioides,"-47.083333","-13.638889"
B. virgilioides,"-47.166699","-22.258301"
B. virgilioides,"-47.25","-13.83"
B. virgilioides,"-47.25","-15.33"
B. virgilioides,"-47.2647018432617","-13.7763996124268"
B. virgilioides,"-47.266667","-19.333333"
B. virgilioides,"-47.269722","-12.236944"
B. virgilioides,"-47.2700004577637","-21.7000007629395"
B. virgilioides,"-47.2983016967773","-12.2186002731323"
B. virgilioides,"-47.3069","-20.182199"
B. virgilioides,"-47.314194","-13.788083"
B. virgilioides,"-47.333333","-19.333333"
B. virgilioides,"-47.334400177002","-15.5371999740601"
B. virgilioides,"-47.33861","-16.21806"
B. virgilioides,"-47.3699989318848","-21.0200004577637"
B. virgilioides,"-47.370622","-6.946308"
B. virgilioides,"-47.386101","-20.122499"
B. virgilioides,"-47.397202","-20.239401"
B. virgilioides,"-47.4000015258789","-20.5300006866455"
B. virgilioides,"-47.4199981689453","-21.9899997711182"
B. virgilioides,"-47.439998626709","-19.8652992248535"
B. virgilioides,"-47.47","-15.63"
B. virgilioides,"-47.4700012207031","-20.25"
B. virgilioides,"-47.4700012207031","-21.7099990844727"
B. virgilioides,"-47.471389","-21.940278"
B. virgilioides,"-47.5","-14.5"
B. virgilioides,"-47.5","-22.0331"
B. virgilioides,"-47.51528","-12.85056"
B. virgilioides,"-47.516667","-14.116667"
B. virgilioides,"-47.540278","-10.025278"
B. virgilioides,"-47.5499992370605","-21.4699993133545"
B. virgilioides,"-47.55","-15.533333"
B. virgilioides,"-47.550833","-15.756666"
B. virgilioides,"-47.5625","-15.604167"
B. virgilioides,"-47.599998","-21.616899"
B. virgilioides,"-47.601571","-7.340931"
B. virgilioides,"-47.6025","-7.4036111"
B. virgilioides,"-47.6136016845703","-16.7686004638672"
B. virgilioides,"-47.614200592041","-15.4527997970581"
B. virgilioides,"-47.65","-16.033333"
B. virgilioides,"-47.665556","-8.433611"
B. virgilioides,"-47.666667","-15.666667"
B. virgilioides,"-47.6747016906738","-19.1525001525879"
B. virgilioides,"-47.683333","-15.733333"
B. virgilioides,"-47.7000007629395","-20.1900005340576"
B. virgilioides,"-47.7233009338379","-11.7096996307373"
B. virgilioides,"-47.746667","-16.014167"
B. virgilioides,"-47.75","-15.566667"
B. virgilioides,"-47.7542","-21.116501"
B. virgilioides,"-47.766667","-15.666667"
B. virgilioides,"-47.794701","-20.9156"
B. virgilioides,"-47.816667","-15.85"
B. virgilioides,"-47.8167","-21.6667"
B. virgilioides,"-47.8199996948242","-22.25"
B. virgilioides,"-47.856125","-15.907056"
B. virgilioides,"-47.866667","-15.683333"
B. virgilioides,"-47.878889","-14.185833"
B. virgilioides,"-47.8830986022949","-12.6153001785278"
B. virgilioides,"-47.890833","-22.0175"
B. virgilioides,"-47.904099","-22.1873"
B. virgilioides,"-47.916667","-15.666667"
B. virgilioides,"-47.923056","-14.21"
B. virgilioides,"-47.926111","-15.731111"
B. virgilioides,"-47.9296989440918","-15.7797002792358"
B. virgilioides,"-47.9339","-15.97243"
B. virgilioides,"-47.9502983093262","-16.2525005340576"
B. virgilioides,"-47.976667","-15.5375"
B. virgilioides,"-48.050999","-22.108"
B. virgilioides,"-48.05917","-13.63167"
B. virgilioides,"-48.06361","-13.37556"
B. virgilioides,"-48.0783004760742","-14.1513996124268"
B. virgilioides,"-48.0999984741211","-21.7199993133545"
B. virgilioides,"-48.1","-14.166667"
B. virgilioides,"-48.106944","-14.355556"
B. virgilioides,"-48.1199989318848","-22.2800006866455"
B. virgilioides,"-48.1408","-22.077801"
B. virgilioides,"-48.1699981689453","-21.7900009155273"
B. virgilioides,"-48.17","-15.63"
B. virgilioides,"-48.180556","-15.521944"
B. virgilioides,"-48.187198638916","-18.6471996307373"
B. virgilioides,"-48.216667","-10.283333"
B. virgilioides,"-48.231389","-14.444444"
B. virgilioides,"-48.241388","-12.910277"
B. virgilioides,"-48.250833","-13.192777"
B. virgilioides,"-48.2550010681152","-15.9397001266479"
B. virgilioides,"-48.263056","-10.42"
B. virgilioides,"-48.266667","-10"
B. virgilioides,"-48.2771987915039","-18.9186000823975"
B. virgilioides,"-48.2817001342773","-0.936667025089264"
B. virgilioides,"-48.297222","-22.8"
B. virgilioides,"-48.314722","-13.049166"
B. virgilioides,"-48.32","-13.88"
B. virgilioides,"-48.333333","-10.666667"
B. virgilioides,"-48.3602981567383","-10.2128000259399"
B. virgilioides,"-48.368889","-18.791667"
B. virgilioides,"-48.390556","-19.466389"
B. virgilioides,"-48.3925","-16.31167"
B. virgilioides,"-48.4","-19.9"
B. virgilioides,"-48.416667","-10.8"
B. virgilioides,"-48.416667","-22.75"
B. virgilioides,"-48.4194444","-14.3583333"
B. virgilioides,"-48.440278","-22.880556"
B. virgilioides,"-48.451388","-14.654444"
B. virgilioides,"-48.4525","-14.4897"
B. virgilioides,"-48.4597015380859","-14.4738998413086"
B. virgilioides,"-48.467201","-22.021601"
B. virgilioides,"-48.4700012207031","-20.9400005340576"
B. virgilioides,"-48.476666","-8.4847222"
B. virgilioides,"-48.505833","-15.460556"
B. virgilioides,"-48.5550003051758","-6.40055990219116"
B. virgilioides,"-48.5572","-14.4886"
B. virgilioides,"-48.5614013671875","-18.1424999237061"
B. virgilioides,"-48.58583","-16.13528"
B. virgilioides,"-48.591111","-6.207778"
B. virgilioides,"-48.625","-17.74169921875"
B. virgilioides,"-48.706901550293","-16.2042007446289"
B. virgilioides,"-48.733333","-22.8"
B. virgilioides,"-48.766667","-15.816667"
B. virgilioides,"-48.78","-9.9"
B. virgilioides,"-48.86669921875","-10.1760997772217"
B. virgilioides,"-48.8699","-20.485901"
B. virgilioides,"-48.8807983398438","-18.8705997467041"
B. virgilioides,"-48.9241981506348","-19.3071994781494"
B. virgilioides,"-48.9528007507324","-16.3267002105713"
B. virgilioides,"-48.9592018127441","-15.852499961853"
B. virgilioides,"-48.9604","-22.323299"
B. virgilioides,"-48.966667","-14.433333"
B. virgilioides,"-48.968889","-14.830556"
B. virgilioides,"-48.9799995422363","-22.4599990844727"
B. virgilioides,"-48.9921","-22.621401"
B. virgilioides,"-49","-22"
B. virgilioides,"-49.031898","-22.354601"
B. virgilioides,"-49.045898","-22.606501"
B. virgilioides,"-49.060001373291","-22.3099994659424"
B. virgilioides,"-49.07","-14.62"
B. virgilioides,"-49.11472","-14.56083"
B. virgilioides,"-49.133333","-15.783333"
B. virgilioides,"-49.168301","-22.0422"
B. virgilioides,"-49.189998626709","-20.3400001525879"
B. virgilioides,"-49.216667","-22.8"
B. virgilioides,"-49.228099822998","-16.9622001647949"
B. virgilioides,"-49.2647018432617","-8.25778007507324"
B. virgilioides,"-49.292222","-14.198333"
B. virgilioides,"-49.327777","-16.903611"
B. virgilioides,"-49.3699989318848","-20.8199996948242"
B. virgilioides,"-49.426700592041","-15.2981004714966"
B. virgilioides,"-49.4650001525879","-18.968900680542"
B. virgilioides,"-49.4864","-19.5356"
B. virgilioides,"-49.5289","-11.7969"
B. virgilioides,"-49.6399993896484","-20.6200008392334"
B. virgilioides,"-49.6423","-22.691999"
B. virgilioides,"-49.683333","-21.05"
B. virgilioides,"-49.7057991027832","-24.2511005401611"
B. virgilioides,"-49.928799","-21.3682"
B. virgilioides,"-49.929199","-20.7428"
B. virgilioides,"-49.956167","-9.259611"
B. virgilioides,"-49.958889","-16.326667"
B. virgilioides,"-50.0299987792969","-20.6900005340576"
B. virgilioides,"-50.0583","-22.575501"
B. virgilioides,"-50.068611","-13.166944"
B. virgilioides,"-50.104444","-17.728889"
B. virgilioides,"-50.136501","-22.558001"
B. virgilioides,"-50.1403007507324","-15.9343996047974"
B. virgilioides,"-50.377899","-22.595301"
B. virgilioides,"-50.4099998474121","-22.6599998474121"
B. virgilioides,"-50.503101348877","-10.4696998596191"
B. virgilioides,"-50.894722","-12.943611"
B. virgilioides,"-50.9281005859375","-17.7980995178223"
B. virgilioides,"-50.978802","-22.371401"
B. virgilioides,"-51","0.616667"
B. virgilioides,"-51.0247001647949","-20.5013999938965"
B. virgilioides,"-51.025","-20.501944"
B. virgilioides,"-51.043598","-22.2223"
B. virgilioides,"-51.0663986206055","-0.366667002439499"
B. virgilioides,"-51.083333","0.616667"
B. virgilioides,"-51.0936012268066","-20.0867004394531"
B. virgilioides,"-51.2000007629395","-21.0200004577637"
B. virgilioides,"-51.208698","-22.1702"
B. virgilioides,"-51.308889","-18.703056"
B. virgilioides,"-51.3148","-22.4778"
B. virgilioides,"-51.3480987548828","-18.7691993713379"
B. virgilioides,"-51.407222","-20.361111"
B. virgilioides,"-51.51","-1.7725"
B. virgilioides,"-51.6782989501953","-20.7511005401611"
B. virgilioides,"-51.766111","-17.284167"
B. virgilioides,"-51.766667","-12.816667"
B. virgilioides,"-51.766667","-20.916667"
B. virgilioides,"-51.766667","-20.983333"
B. virgilioides,"-51.77","-17.35"
B. virgilioides,"-51.866667","-12.9"
B. virgilioides,"-51.995278","-18.439444"
B. virgilioides,"-52.2064018249512","-3.20333003997803"
B. virgilioides,"-52.2567","-15.8903"
B. virgilioides,"-52.333333","-14.733333"
B. virgilioides,"-52.383333","-16.5"
B. virgilioides,"-52.405556","-17.633889"
B. virgilioides,"-52.4221992492676","-21.7141990661621"
B. virgilioides,"-52.666667","-16.45"
B. virgilioides,"-53.2052993774414","-17.3255996704102"
B. virgilioides,"-53.2821998596191","-17.826099395752"
B. virgilioides,"-53.7061004638672","-18.3241996765137"
B. virgilioides,"-53.7592010498047","-20.4430999755859"
B. virgilioides,"-54","-9.366667"
B. virgilioides,"-54.0511016845703","-14.4316997528076"
B. virgilioides,"-54.363899230957","-19.9178009033203"
B. virgilioides,"-54.3993988037109","-20.1417007446289"
B. virgilioides,"-54.6356010437012","-16.4708003997803"
B. virgilioides,"-54.6464004516602","-20.4428005218506"
B. virgilioides,"-54.740486","-2.449614"
B. virgilioides,"-54.756667","-17.728056"
B. virgilioides,"-54.8602981567383","-20.4421997070312"
B. virgilioides,"-54.876111","-2.536667"
B. virgilioides,"-54.916667","-2.4425"
B. virgilioides,"-54.9647","-2.5175"
B. virgilioides,"-55","-14.966667"
B. virgilioides,"-55.166667","-14.716667"
B. virgilioides,"-55.1683006286621","-21.6144008636475"
B. virgilioides,"-55.198299407959","-9.95028018951416"
B. virgilioides,"-55.6805556","-14.4736111"
B. virgilioides,"-55.7425","-18.906944"
B. virgilioides,"-55.749698638916","-15.460599899292"
B. virgilioides,"-55.7872009277344","-20.4710998535156"
B. virgilioides,"-55.79","-14.5394444"
B. virgilioides,"-55.9674987792969","-16.1944007873535"
B. virgilioides,"-56.043867","-15.612755"
B. virgilioides,"-56.0766983032227","-15.8655996322632"
B. virgilioides,"-56.1380996704102","-21.4803009033203"
B. virgilioides,"-56.17","-19.5"
B. virgilioides,"-56.3456001281738","-15.7749996185303"
B. virgilioides,"-56.4275016784668","-14.8360996246338"
B. virgilioides,"-56.431306","-15.593806"
B. virgilioides,"-56.489200592041","-15.2356004714966"
B. virgilioides,"-56.583333","-18.883333"
B. virgilioides,"-56.619167","-18.987778"
B. virgilioides,"-56.65","-18.983333"
B. virgilioides,"-56.7150001525879","-20.5386009216309"
B. virgilioides,"-56.815147","-10.347025"
B. virgilioides,"-56.898056","-9.238611"
B. virgilioides,"-56.916667","-19.166667"
B. virgilioides,"-57","-12"
B. virgilioides,"-57.2275009155273","-15.3243999481201"
B. virgilioides,"-57.229694","-15.598361"
B. virgilioides,"-57.3758","-16.1226"
B. virgilioides,"-57.53","-17.87"
B. virgilioides,"-57.564167","-19.210278"
B. virgilioides,"-57.616667","-16.166667"
B. virgilioides,"-57.6533012390137","-19.0091991424561"
B. virgilioides,"-57.6789016723633","-16.0706005096436"
B. virgilioides,"-57.752799987793","-6.22221994400024"
B. virgilioides,"-57.825028","-16.060667"
B. virgilioides,"-58.010694","-16.145556"
B. virgilioides,"-58.304389","-16.358333"
B. virgilioides,"-59.155","-10.270556"
B. virgilioides,"-59.4592","-10.1669"
B. virgilioides,"-59.6227989196777","3.88110995292664"
B. virgilioides,"-59.72","-15.75"
B. virgilioides,"-59.74583","-2.41625"
B. virgilioides,"-59.7858009338379","-13.6631002426147"
B. virgilioides,"-60","3"
B. virgilioides,"-60.025","-3.10194"
B. virgilioides,"-60.343611","-13.994722"
B. virgilioides,"-60.433333","3.45"
B. virgilioides,"-60.6733016967773","2.81972002983093"
B. virgilioides,"-60.6872","2.8167"
B. virgilioides,"-60.716944","2.864444"
B. virgilioides,"-61.007111","1.490056"
B. virgilioides,"-61.102239","3.450231"
B. virgilioides,"-61.1464","4.43139"
B. virgilioides,"-61.333333","3.366667"
B. virgilioides,"-61.611199","3.906517"
B. virgilioides,"-61.633333","-8.5"
B. virgilioides,"-61.833333","3.583333"
B. virgilioides,"-61.9542007446289","-11.9680995941162"
B. virgilioides,"-63.0208015441895","-7.50611019134521"
B. virgilioides,"-63.166667","-7.516667"
B. virgilioides,"-64.594167","-9.287778"
B. virgilioides,"-65.0331","-9.5972"
B. virgilioides,"-65.3","-4.870556"
B. virgilioides,"-67.75","-10.5"
B. virgilioides,"-67.81","-9.9747"
B. virgilioides,"-36.3060989379883","-10.2918996810913"
